dataIn/vcd/bitstream.vcd
$comment
TOOL:	simvision(64)	15.10-s027
$end

$date
    Apr 22, 2020 11:11:46
$end

$timescale
    0.0001fs
$end


$scope module SETUP $end
$var real 64 ! BIT_GEN $end
$var wire 1 " OUT $end
$upscope $end

$enddefinitions $end
#0
$dumpvars
r1 !
0"
$end
#5000000000
r1 !
#15000000000
r1 !
#35000000000
r1 !
#75000000000
r1 !
#100000000000
r1 !
#100500250000
r1 !
#101000000000
r1 !
#101500250000
r1 !
#102500250000
r1 !
#104500250000
r1 !
#108500250000
r1 !
#116500250000
r1 !
#132500250000
r1 !
#164500250000
r1 !
#228500250000
r1 !
#250000000000
r1 !
#251000000000
r0 !
#253000000000
r0 !
#257000000000
r0 !
#265000000000
r0 !
#281000000000
r0 !
#300000000000
r0 !
#301000000000
r0 !
#303000000000
r0 !
#307000000000
r0 !
#315000000000
r0 !
#331000000000
r0 !
#363000000000
r0 !
#400000000000
r0 !
#400500250000
r0 !
#401000000000
r0 !
#401500250000
r0 !
#402500250000
r0 !
#404500250000
r0 !
#408500250000
r0 !
#416500250000
r0 !
#432500250000
r0 !
#464500250000
r0 !
#500000000000
r0 !
#500500250000
r0.50025000050002322 !
#501000000000
r1 !
#501999499999
r0.99999999999999989 !
#503998499996
r1 !
#507996499992
r1 !
#515992499984
r1 !
#531984499968
r1 !
#563968499936
r1 !
#627936499872
r1 !
#727936499872
r1 !
#750000000000
r1 !
#751000000000
r0 !
#752999999999
r0 !
#756999999999
r0 !
#764999999999
r0 !
#780999999999
r0 !
#800000000000
r0 !
#800500250000
r0 !
#801000000000
r0 !
#801500250000
r0 !
#802500250000
r0 !
#804500250000
r0 !
#808500250000
r0 !
#816500250000
r0 !
#832500250000
r0 !
#864500250000
r0 !
#900000000000
r0 !
#901000000000
r0 !
#903000000000
r0 !
#906999999999
r0 !
#914999999999
r0 !
#930999999999
r0 !
#962999999999
r0 !
#1000000000000
r0 !
#1000500250000
r0.50025000050008939 !
#1001000000000
r1 !
#1001500250000
r1 !
#1002500000000
1"
#1002500250000
r1 !
#1004500250000
r1 !
#1008500250000
r1 !
#1016500250000
r1 !
#1032500250000
r1 !
#1064500250000
r1 !
#1100000000000
r1 !
#1100500250000
r1 !
#1101000000000
r1 !
#1101500250000
r1 !
#1102500250000
r1 !
#1104500250000
r1 !
#1108500250000
r1 !
#1116500250000
r1 !
#1132500250000
r1 !
#1164500250000
r1 !
#1228500250000
r1 !
#1250000000000
r1 !
#1251000000000
r0 !
#1253000000000
r0 !
#1257000000000
r0 !
#1265000000000
r0 !
#1281000000000
r0 !
#1300000000000
r0 !
#1301000000000
r0 !
#1303000000000
r0 !
#1307000000000
r0 !
#1315000000000
r0 !
#1331000000000
r0 !
#1363000000000
r0 !
#1427000000000
r0 !
#1500000000000
r0 !
#1500500250000
r0.50025000050008939 !
#1501000000000
r1 !
#1501500250000
r1 !
#1502500000000
0"
#1502500250000
r1 !
#1504500250000
r1 !
#1508500250000
r1 !
#1516500250000
r1 !
#1532500250000
r1 !
#1564500250000
r1 !
#1600000000000
r1 !
#1600500250000
r1 !
#1601000000000
r1 !
#1601500250000
r1 !
#1602500250000
r1 !
#1604500250000
r1 !
#1608500250000
r1 !
#1616500250000
r1 !
#1632500250000
r1 !
#1664500250000
r1 !
#1728500250000
r1 !
#1750000000000
r1 !
#1751000000000
r0 !
#1753000000000
r0 !
#1757000000000
r0 !
#1765000000000
r0 !
#1781000000000
r0 !
#1813000000000
r0 !
#1877000000000
r0 !
#1977000000000
r0 !
#2000000000000
r0 !
#2000500250000
r0.50025000050008939 !
#2001000000000
r1 !
#2001500250000
r1 !
#2002500000000
1"
#2002500250000
r1 !
#2004500250000
r1 !
#2008500250000
r1 !
#2016500250000
r1 !
#2032500250000
r1 !
#2064500250000
r1 !
#2128500250000
r1 !
#2200000000000
r1 !
#2201000000000
r1 !
#2203000000000
r1 !
#2207000000000
r1 !
#2215000000000
r1 !
#2231000000000
r1 !
#2250000000000
r1 !
#2251000000000
r0 !
#2253000000000
r0 !
#2257000000000
r0 !
#2265000000000
r0 !
#2281000000000
r0 !
#2300000000000
r0 !
#2300500250000
r0 !
#2301000000000
r0 !
#2301500250000
r0 !
#2302500250000
r0 !
#2304500250000
r0 !
#2308500250000
r0 !
#2316500250000
r0 !
#2332500250000
r0 !
#2364500250000
r0 !
#2428500250000
r0 !
#2500000000000
r0 !
#2500500250000
r0.50025000050008939 !
#2501000000000
r1 !
#2501500250000
r1 !
#2502500000000
0"
#2502500250000
r1 !
#2504500250000
r1 !
#2508500250000
r1 !
#2516500250000
r1 !
#2532500250000
r1 !
#2564500250000
r1 !
#2600000000000
r1 !
#2601000000000
r1 !
#2603000000000
r1 !
#2607000000000
r1 !
#2615000000000
r1 !
#2631000000000
r1 !
#2663000000000
r1 !
#2700000000000
r1 !
#2700500250000
r1 !
#2701000000000
r1 !
#2701500250000
r1 !
#2702500250000
r1 !
#2704500250000
r1 !
#2708500250000
r1 !
#2716500250000
r1 !
#2732500250000
r1 !
#2750000000000
r1 !
#2751000000000
r0 !
#2753000000000
r0 !
#2757000000000
r0 !
#2765000000000
r0 !
#2781000000000
r0 !
#2813000000000
r0 !
#2877000000000
r0 !
#2900000000000
r0 !
#2901000000000
r0 !
#2903000000000
r0 !
#2907000000000
r0 !
#2915000000000
r0 !
#2931000000000
r0 !
#2963000000000
r0 !
#3000000000000
r0 !
#3000500250000
r0.50025000050008939 !
#3001000000000
r1 !
#3001500250000
r1 !
#3002500000000
1"
#3002500250000
r1 !
#3004500250000
r1 !
#3008500250000
r1 !
#3016500250000
r1 !
#3032500250000
r1 !
#3064500250000
r1 !
#3128500250000
r1 !
#3200000000000
r1 !
#3200500250000
r1 !
#3201000000000
r1 !
#3201500250000
r1 !
#3202500250000
r1 !
#3204500250000
r1 !
#3208500250000
r1 !
#3216500250000
r1 !
#3232500250000
r1 !
#3250000000000
r1 !
#3251000000000
r0 !
#3253000000000
r0 !
#3257000000000
r0 !
#3265000000000
r0 !
#3281000000000
r0 !
#3300000000000
r0 !
#3301000000000
r0 !
#3303000000000
r0 !
#3307000000000
r0 !
#3315000000000
r0 !
#3331000000000
r0 !
#3363000000000
r0 !
#3400000000000
r0 !
#3400500250000
r0 !
#3401000000000
r0 !
#3401500250000
r0 !
#3402500250000
r0 !
#3404500250000
r0 !
#3408500250000
r0 !
#3416500250000
r0 !
#3432500250000
r0 !
#3464500250000
r0 !
#3500000000000
r0 !
#3500500250000
r0.50025000050008939 !
#3501000000000
r1 !
#3501999499999
r1 !
#3503998499997
r1 !
#3507996499992
r1 !
#3515992499984
r1 !
#3531984499968
r1 !
#3563968499936
r1 !
#3627936499872
r1 !
#3700000000000
r1 !
#3701000000000
r1 !
#3703000000000
r1 !
#3707000000000
r1 !
#3715000000000
r1 !
#3731000000000
r1 !
#3750000000000
r1 !
#3751000000000
r0 !
#3753000000000
r0 !
#3757000000000
r0 !
#3765000000000
r0 !
#3781000000000
r0 !
#3813000000000
r0 !
#3877000000000
r0 !
#3900000000000
r0 !
#3900500250000
r0 !
#3901000000000
r0 !
#3901500250000
r0 !
#3902500250000
r0 !
#3904500250000
r0 !
#3908500250000
r0 !
#3916500250000
r0 !
#3932500250000
r0 !
#3964500250000
r0 !
#4000000000000
r0 !
#4000500250000
r0.50025000050008939 !
#4001000000000
r1 !
#4001500250000
r1 !
#4002500000000
0"
#4002500250000
r1 !
#4004500250000
r1 !
#4008500250000
r1 !
#4016500250000
r1 !
#4032500250000
r1 !
#4064500250000
r1 !
#4100000000000
r1 !
#4100500250000
r1 !
#4101000000000
r1 !
#4101500250000
r1 !
#4102500250000
r1 !
#4104500250000
r1 !
#4108500250000
r1 !
#4116500250000
r1 !
#4132500250000
r1 !
#4164500250000
r1 !
#4200000000000
r1 !
#4201000000000
r1 !
#4203000000000
r1 !
#4207000000000
r1 !
#4215000000000
r1 !
#4231000000000
r1 !
#4250000000000
r1 !
#4251000000000
r0 !
#4253000000000
r0 !
#4257000000000
r0 !
#4265000000000
r0 !
#4281000000000
r0 !
#4313000000000
r0 !
#4377000000000
r0 !
#4477000000000
r0 !
#4500000000000
r0 !
#4500500250000
r0.50025000050008939 !
#4501000000000
r1 !
#4501500250000
r1 !
#4502500000000
1"
#4502500250000
r1 !
#4504500250000
r1 !
#4508500250000
r1 !
#4516500250000
r1 !
#4532500250000
r1 !
#4564500250000
r1 !
#4628500250000
r1 !
#4700000000000
r1 !
#4701000000000
r1 !
#4703000000000
r1 !
#4707000000000
r1 !
#4715000000000
r1 !
#4731000000000
r1 !
#4750000000000
r1 !
#4751000000000
r0 !
#4753000000000
r0 !
#4757000000000
r0 !
#4765000000000
r0 !
#4781000000000
r0 !
#4800000000000
r0 !
#4800500250000
r0 !
#4801000000000
r0 !
#4801500250000
r0 !
#4802500250000
r0 !
#4804500250000
r0 !
#4808500250000
r0 !
#4816500250000
r0 !
#4832500250000
r0 !
#4864500250000
r0 !
#4900000000000
r0 !
#4901000000000
r0 !
#4903000000000
r0 !
#4907000000000
r0 !
#4915000000000
r0 !
#4931000000000
r0 !
#4963000000000
r0 !
#5000000000000
r0 !
